tid,tname
101,Adelaide
102,BrisbaneLions
103,Carlton
104,Collingwood
105,Essendon
106,Fremantle
107,Geelong
108,GoldCoast
109,GreaterWesternSydney
110,Hawthorn
111,Melbourne
112,NorthMelbourne
113,PortAdelaide
114,Richmond
115,StKilda
116,Sydney
117,WestCoast
118,WesternBulldogs
