\relax 
\providecommand\hyper@newdestlabel[2]{}
\providecommand\HyperFirstAtBeginDocument{\AtBeginDocument}
\HyperFirstAtBeginDocument{\ifx\hyper@anchor\@undefined
\global\let\oldcontentsline\contentsline
\gdef\contentsline#1#2#3#4{\oldcontentsline{#1}{#2}{#3}}
\global\let\oldnewlabel\newlabel
\gdef\newlabel#1#2{\newlabelxx{#1}#2}
\gdef\newlabelxx#1#2#3#4#5#6{\oldnewlabel{#1}{{#2}{#3}}}
\AtEndDocument{\ifx\hyper@anchor\@undefined
\let\contentsline\oldcontentsline
\let\newlabel\oldnewlabel
\fi}
\fi}
\global\let\hyper@last\relax 
\gdef\HyperFirstAtBeginDocument#1{#1}
\providecommand\HyField@AuxAddToFields[1]{}
\providecommand\HyField@AuxAddToCoFields[2]{}
\@writefile{toc}{\contentsline {section}{\numberline {1}Introduction}{\thepage }{section.1}}
\citation{8paper}
\citation{9paper}
\citation{2paper}
\citation{1paper}
\citation{4paper}
\citation{6paper}
\citation{7paper}
\citation{7paper}
\citation{10paper}
\@writefile{toc}{\contentsline {section}{\numberline {2}Related Work}{\thepage }{section.2}}
\@writefile{toc}{\contentsline {section}{\numberline {3}Data Collection}{\thepage }{section.3}}
\@writefile{toc}{\contentsline {section}{\numberline {4}Data Analysis}{\thepage }{section.4}}
\@writefile{toc}{\contentsline {subsection}{\numberline {4.1}Team Analysis}{\thepage }{subsection.4.1}}
\@writefile{lof}{\contentsline {figure}{\numberline {1}{\ignorespaces The wining distribution of AFL teams.\relax }}{\thepage }{figure.caption.3}}
\providecommand*\caption@xref[2]{\@setref\relax\@undefined{#1}}
\newlabel{fig:wining-dis}{{1}{\thepage }{The wining distribution of AFL teams.\relax }{figure.caption.3}{}}
\@writefile{lof}{\contentsline {figure}{\numberline {2}{\ignorespaces The temporal evolution of teams and their popularity from 2000 to 2015\relax }}{\thepage }{figure.caption.4}}
\newlabel{fig:temporal-pop-team}{{2}{\thepage }{The temporal evolution of teams and their popularity from 2000 to 2015\relax }{figure.caption.4}{}}
\@writefile{lof}{\contentsline {subfigure}{\numberline{(a)}{\ignorespaces {The temporal changes in ranking of AFL teams}}}{\thepage }{subfigure.2.1}}
\@writefile{lof}{\contentsline {subfigure}{\numberline{(b)}{\ignorespaces {Popularity of AFL teams}}}{\thepage }{subfigure.2.2}}
\@writefile{toc}{\contentsline {subsection}{\numberline {4.2}Match Analysis}{\thepage }{subsection.4.2}}
\@writefile{toc}{\contentsline {subsection}{\numberline {4.3}Player Analysis}{\thepage }{subsection.4.3}}
\@writefile{toc}{\contentsline {section}{\numberline {5}Outcome Prediction}{\thepage }{section.5}}
\@writefile{toc}{\contentsline {subsection}{\numberline {5.1}Problem Statement}{\thepage }{subsection.5.1}}
\@writefile{toc}{\contentsline {subsection}{\numberline {5.2}Evaluation}{\thepage }{subsection.5.2}}
\newlabel{eq:prob}{{2}{\thepage }{Evaluation}{equation.5.2}{}}
\@writefile{toc}{\contentsline {section}{\numberline {6}Feature Extraction}{\thepage }{section.6}}
\@writefile{toc}{\contentsline {subsection}{\numberline {6.1}Features Extraction}{\thepage }{subsection.6.1}}
\@writefile{lof}{\contentsline {figure}{\numberline {3}{\ignorespaces Distribution of attendants of AFL matches\relax }}{\thepage }{figure.caption.5}}
\newlabel{fig:dis-matches}{{3}{\thepage }{Distribution of attendants of AFL matches\relax }{figure.caption.5}{}}
\@writefile{lof}{\contentsline {figure}{\numberline {4}{\ignorespaces The efficiency of AFL players from 2000 to 2015\relax }}{\thepage }{figure.caption.6}}
\newlabel{fig:dis-players}{{4}{\thepage }{The efficiency of AFL players from 2000 to 2015\relax }{figure.caption.6}{}}
\@writefile{lof}{\contentsline {subfigure}{\numberline{(a)}{\ignorespaces {The temporal changes in player efficiency}}}{\thepage }{subfigure.4.1}}
\@writefile{lof}{\contentsline {subfigure}{\numberline{(b)}{\ignorespaces {Top20 players in AFL}}}{\thepage }{subfigure.4.2}}
\bibstyle{unsrt}
\bibdata{www}
\bibcite{8paper}{1}
\bibcite{9paper}{2}
\bibcite{2paper}{3}
\bibcite{1paper}{4}
\bibcite{4paper}{5}
\bibcite{6paper}{6}
\bibcite{7paper}{7}
\@writefile{toc}{\contentsline {section}{\numberline {7}Experimental Setup}{\thepage }{section.7}}
\@writefile{toc}{\contentsline {subsection}{\numberline {7.1}Prediction Model}{\thepage }{subsection.7.1}}
\@writefile{toc}{\contentsline {subsection}{\numberline {7.2}Results}{\thepage }{subsection.7.2}}
\@writefile{toc}{\contentsline {section}{\numberline {8}Conclusion}{\thepage }{section.8}}
\@writefile{toc}{\contentsline {section}{\numberline {9}References}{\thepage }{section.9}}
\bibcite{10paper}{8}
